﻿Código_predio;Area;Municipio;Precio;Tipo
1;100;Bogota;640;Casa
2;87;Bogota;430;Apartamento
3;54;Medellin;300;Apartamento
4;220;Bogota;1500;Casa
5;32;Cali;400;Apartamento
6;260;Cali;1050;Casa
7;45;Chia;380;Apartamento
8;67;Medellin;670;Apartamento
9;240;Sopo;800;Casa
10;38;Chia;300;Apartamento
